ggplot
…
---

count: false

.panel1-plot-auto[

```r
*gapminder
```
]
 
.panel2-plot-auto[

```
## # A tibble: 1,704 x 6
##    country     continent  year lifeExp      pop gdpPercap
##    <fct>       <fct>     <int>   <dbl>    <int>     <dbl>
##  1 Afghanistan Asia       1952    28.8  8425333      779.
##  2 Afghanistan Asia       1957    30.3  9240934      821.
##  3 Afghanistan Asia       1962    32.0 10267083      853.
##  4 Afghanistan Asia       1967    34.0 11537966      836.
##  5 Afghanistan Asia       1972    36.1 13079460      740.
##  6 Afghanistan Asia       1977    38.4 14880372      786.
##  7 Afghanistan Asia       1982    39.9 12881816      978.
##  8 Afghanistan Asia       1987    40.8 13867957      852.
##  9 Afghanistan Asia       1992    41.7 16317921      649.
## 10 Afghanistan Asia       1997    41.8 22227415      635.
## # ... with 1,694 more rows
```
…
---

count: false

.panel1-lineplot-auto[

```r
*gapminder
```
]
 
.panel2-lineplot-auto[

```
## # A tibble: 1,704 x 6
##    country     continent  year lifeExp      pop gdpPercap
##    <fct>       <fct>     <int>   <dbl>    <int>     <dbl>
##  1 Afghanistan Asia       1952    28.8  8425333      779.
##  2 Afghanistan Asia       1957    30.3  9240934      821.
##  3 Afghanistan Asia       1962    32.0 10267083      853.
##  4 Afghanistan Asia       1967    34.0 11537966      836.
##  5 Afghanistan Asia       1972    36.1 13079460      740.
##  6 Afghanistan Asia       1977    38.4 14880372      786.
##  7 Afghanistan Asia       1982    39.9 12881816      978.
##  8 Afghanistan Asia       1987    40.8 13867957      852.
##  9 Afghanistan Asia       1992    41.7 16317921      649.
## 10 Afghanistan Asia       1997    41.8 22227415      635.
## # ... with 1,694 more rows
```
…
---
count: false

.panel1-lineplot-auto[

```r
gapminder %>%
* group_by(continent, year)
```
]
 
.panel2-lineplot-auto[

```
## # A tibble: 1,704 x 6
## # Groups:   continent, year [60]
##    country     continent  year lifeExp      pop gdpPercap
##    <fct>       <fct>     <int>   <dbl>    <int>     <dbl>
##  1 Afghanistan Asia       1952    28.8  8425333      779.
##  2 Afghanistan Asia       1957    30.3  9240934      821.
##  3 Afghanistan Asia       1962    32.0 10267083      853.
##  4 Afghanistan Asia       1967    34.0 11537966      836.
##  5 Afghanistan Asia       1972    36.1 13079460      740.
##  6 Afghanistan Asia       1977    38.4 14880372      786.
##  7 Afghanistan Asia       1982    39.9 12881816      978.
##  8 Afghanistan Asia       1987    40.8 13867957      852.
##  9 Afghanistan Asia       1992    41.7 16317921      649.
## 10 Afghanistan Asia       1997    41.8 22227415      635.
## # ... with 1,694 more rows
```
…
.panel1-lineplot-auto[

```r
gapminder %>%
  group_by(continent, year) %>%
* summarise(lifeExp = median(lifeExp))
```
]
 
.panel2-lineplot-auto[

```
## # A tibble: 60 x 3
## # Groups:   continent [5]
##    continent  year lifeExp
##    <fct>     <int>   <dbl>
##  1 Africa     1952    38.8
##  2 Africa     1957    40.6
##  3 Africa     1962    42.6
##  4 Africa     1967    44.7
##  5 Africa     1972    47.0
##  6 Africa     1977    49.3
##  7 Africa     1982    50.8
##  8 Africa     1987    51.6
##  9 Africa     1992    52.4
## 10 Africa     1997    52.8
## # ... with 50 more rows
```
…
